%!PS-Adobe-2.0
0 840 translate
270 rotate
0.100000 0.100000 scale
10 setlinewidth
10 setlinewidth
newpath
  840 720 moveto
  7160 0 rlineto
  0 4640 rlineto
  -7160 0 rlineto
  closepath
stroke

/Times-Roman findfont 120 scalefont setfont
3226 360 moveto
(Energy \050eV\051) show
gsave
600 2206 moveto
/Times-Roman findfont 120 scalefont setfont
90 rotate
(Intensity \050x10) show
/Times-Roman findfont 90 scalefont setfont
0 60 rmoveto
(0) show
0 -60 rmoveto
/Times-Roman findfont 120 scalefont setfont
(\051) show
stroke
grestore
/Times-Roman findfont 80 scalefont setfont
newpath
  2272 720 moveto
  0 30 rlineto
  2272 5360 moveto
  0 -10 rlineto
stroke
  2242 600 moveto
  (1) show
newpath
  3704 720 moveto
  0 30 rlineto
  3704 5360 moveto
  0 -10 rlineto
stroke
  3674 600 moveto
  (2) show
newpath
  5136 720 moveto
  0 30 rlineto
  5136 5360 moveto
  0 -10 rlineto
stroke
  5106 600 moveto
  (3) show
newpath
  6568 720 moveto
  0 30 rlineto
  6568 5360 moveto
  0 -10 rlineto
stroke
  6538 600 moveto
  (4) show

5 setlinewidth
newpath
  840 840 moveto
  847 840 lineto
  854 840 lineto
  861 840 lineto
  869 840 lineto
  876 840 lineto
  883 840 lineto
  890 840 lineto
  897 840 lineto
  904 840 lineto
  912 840 lineto
  919 840 lineto
  926 840 lineto
  933 840 lineto
  940 840 lineto
  947 840 lineto
  955 840 lineto
  962 840 lineto
  969 840 lineto
  976 840 lineto
  983 840 lineto
  990 840 lineto
  998 840 lineto
  1005 840 lineto
  1012 840 lineto
  1019 840 lineto
  1026 840 lineto
  1033 840 lineto
  1040 840 lineto
  1048 840 lineto
  1055 840 lineto
  1062 840 lineto
  1069 840 lineto
  1076 840 lineto
  1083 840 lineto
  1091 840 lineto
  1098 840 lineto
  1105 840 lineto
  1112 840 lineto
  1119 840 lineto
  1126 840 lineto
  1134 840 lineto
  1141 840 lineto
  1148 840 lineto
  1155 840 lineto
  1162 840 lineto
  1169 840 lineto
  1177 840 lineto
  1184 840 lineto
  1191 840 lineto
  1198 840 lineto
  1205 840 lineto
  1212 840 lineto
  1219 840 lineto
  1227 840 lineto
  1234 840 lineto
  1241 840 lineto
  1248 840 lineto
  1255 840 lineto
  1262 840 lineto
  1270 840 lineto
  1277 840 lineto
  1284 840 lineto
  1291 840 lineto
  1298 840 lineto
  1305 840 lineto
  1313 840 lineto
  1320 840 lineto
  1327 840 lineto
  1334 840 lineto
  1341 840 lineto
  1348 840 lineto
  1356 840 lineto
  1363 840 lineto
  1370 840 lineto
  1377 840 lineto
  1384 840 lineto
  1391 840 lineto
  1398 840 lineto
  1406 840 lineto
  1413 840 lineto
  1420 840 lineto
  1427 840 lineto
  1434 840 lineto
  1441 840 lineto
  1449 840 lineto
  1456 840 lineto
  1463 840 lineto
  1470 840 lineto
  1477 840 lineto
  1484 840 lineto
  1492 840 lineto
  1499 840 lineto
  1506 840 lineto
  1513 840 lineto
  1520 840 lineto
  1527 840 lineto
  1535 840 lineto
  1542 840 lineto
  1549 840 lineto
  1556 840 lineto
  1563 840 lineto
  1570 840 lineto
  1577 840 lineto
  1585 840 lineto
  1592 840 lineto
  1599 840 lineto
  1606 840 lineto
  1613 840 lineto
  1620 840 lineto
  1628 840 lineto
  1635 840 lineto
  1642 840 lineto
  1649 840 lineto
  1656 840 lineto
  1663 840 lineto
  1671 840 lineto
  1678 840 lineto
  1685 840 lineto
  1692 840 lineto
  1699 840 lineto
  1706 840 lineto
  1714 840 lineto
  1721 840 lineto
  1728 840 lineto
  1735 840 lineto
  1742 840 lineto
  1749 840 lineto
  1756 840 lineto
  1764 840 lineto
  1771 840 lineto
  1778 840 lineto
  1785 840 lineto
  1792 840 lineto
  1799 840 lineto
  1807 840 lineto
  1814 840 lineto
  1821 840 lineto
  1828 840 lineto
  1835 840 lineto
  1842 840 lineto
  1850 840 lineto
  1857 840 lineto
  1864 840 lineto
  1871 840 lineto
  1878 840 lineto
  1885 840 lineto
  1893 840 lineto
  1900 840 lineto
  1907 840 lineto
  1914 840 lineto
  1921 840 lineto
  1928 840 lineto
  1935 840 lineto
  1943 840 lineto
  1950 840 lineto
  1957 840 lineto
  1964 840 lineto
  1971 840 lineto
  1978 840 lineto
  1986 840 lineto
  1993 840 lineto
  2000 840 lineto
  2007 840 lineto
  2014 840 lineto
  2021 840 lineto
  2029 840 lineto
  2036 840 lineto
  2043 840 lineto
  2050 840 lineto
  2057 840 lineto
  2064 840 lineto
  2072 840 lineto
  2079 840 lineto
  2086 840 lineto
  2093 840 lineto
  2100 840 lineto
  2107 840 lineto
  2114 840 lineto
  2122 840 lineto
  2129 840 lineto
  2136 840 lineto
  2143 840 lineto
  2150 840 lineto
  2157 840 lineto
  2165 840 lineto
  2172 840 lineto
  2179 840 lineto
  2186 840 lineto
  2193 840 lineto
  2200 840 lineto
  2208 840 lineto
  2215 840 lineto
  2222 840 lineto
  2229 840 lineto
  2236 840 lineto
  2243 840 lineto
  2251 840 lineto
  2258 840 lineto
  2265 840 lineto
  2272 840 lineto
  2279 840 lineto
  2286 840 lineto
  2293 840 lineto
  2301 840 lineto
  2308 840 lineto
  2315 840 lineto
  2322 840 lineto
  2329 840 lineto
  2336 840 lineto
  2344 840 lineto
  2351 840 lineto
  2358 840 lineto
  2365 840 lineto
  2372 840 lineto
  2379 840 lineto
  2387 840 lineto
  2394 840 lineto
  2401 840 lineto
  2408 840 lineto
  2415 840 lineto
  2422 840 lineto
  2430 840 lineto
  2437 840 lineto
  2444 840 lineto
  2451 840 lineto
  2458 840 lineto
  2465 840 lineto
  2472 840 lineto
  2480 840 lineto
  2487 840 lineto
  2494 840 lineto
  2501 840 lineto
  2508 840 lineto
  2515 840 lineto
  2523 840 lineto
  2530 840 lineto
  2537 840 lineto
  2544 840 lineto
  2551 840 lineto
  2558 840 lineto
  2566 840 lineto
  2573 840 lineto
  2580 840 lineto
  2587 840 lineto
  2594 840 lineto
  2601 840 lineto
  2609 840 lineto
  2616 840 lineto
  2623 840 lineto
  2630 840 lineto
  2637 840 lineto
  2644 840 lineto
  2651 840 lineto
  2659 840 lineto
  2666 840 lineto
  2673 840 lineto
  2680 840 lineto
  2687 840 lineto
  2694 840 lineto
  2702 840 lineto
  2709 840 lineto
  2716 840 lineto
  2723 840 lineto
  2730 840 lineto
  2737 840 lineto
  2745 840 lineto
  2752 840 lineto
  2759 840 lineto
  2766 840 lineto
  2773 840 lineto
  2780 840 lineto
  2788 840 lineto
  2795 840 lineto
  2802 840 lineto
  2809 840 lineto
  2816 840 lineto
  2823 840 lineto
  2830 840 lineto
  2838 840 lineto
  2845 840 lineto
  2852 840 lineto
  2859 840 lineto
  2866 840 lineto
  2873 840 lineto
  2881 840 lineto
  2888 840 lineto
  2895 840 lineto
  2902 840 lineto
  2909 840 lineto
  2916 840 lineto
  2924 840 lineto
  2931 840 lineto
  2938 840 lineto
  2945 840 lineto
  2952 840 lineto
  2959 840 lineto
  2967 840 lineto
  2974 840 lineto
  2981 840 lineto
  2988 840 lineto
  2995 840 lineto
  3002 840 lineto
  3009 840 lineto
  3017 840 lineto
  3024 840 lineto
  3031 840 lineto
  3038 840 lineto
  3045 840 lineto
  3052 840 lineto
  3060 840 lineto
  3067 840 lineto
  3074 840 lineto
  3081 840 lineto
  3088 840 lineto
  3095 840 lineto
  3103 840 lineto
  3110 840 lineto
  3117 840 lineto
  3124 840 lineto
  3131 840 lineto
  3138 840 lineto
  3146 840 lineto
  3153 840 lineto
  3160 840 lineto
  3167 840 lineto
  3174 840 lineto
  3181 840 lineto
  3188 840 lineto
  3196 840 lineto
  3203 840 lineto
  3210 840 lineto
  3217 840 lineto
  3224 840 lineto
  3231 840 lineto
  3239 840 lineto
  3246 840 lineto
  3253 840 lineto
  3260 840 lineto
  3267 840 lineto
  3274 840 lineto
  3282 840 lineto
  3289 840 lineto
  3296 840 lineto
  3303 840 lineto
  3310 840 lineto
  3317 840 lineto
  3325 840 lineto
  3332 840 lineto
  3339 840 lineto
  3346 840 lineto
  3353 840 lineto
  3360 840 lineto
  3367 840 lineto
  3375 840 lineto
  3382 840 lineto
  3389 840 lineto
  3396 840 lineto
  3403 840 lineto
  3410 840 lineto
  3418 840 lineto
  3425 840 lineto
  3432 840 lineto
  3439 840 lineto
  3446 840 lineto
  3453 840 lineto
  3461 840 lineto
  3468 840 lineto
  3475 840 lineto
  3482 840 lineto
  3489 840 lineto
  3496 840 lineto
  3504 840 lineto
  3511 840 lineto
  3518 840 lineto
  3525 840 lineto
  3532 840 lineto
  3539 840 lineto
  3546 840 lineto
  3554 840 lineto
  3561 840 lineto
  3568 840 lineto
  3575 840 lineto
  3582 840 lineto
  3589 840 lineto
  3597 840 lineto
  3604 840 lineto
  3611 840 lineto
  3618 840 lineto
  3625 840 lineto
  3632 840 lineto
  3640 840 lineto
  3647 840 lineto
  3654 840 lineto
  3661 840 lineto
  3668 840 lineto
  3675 840 lineto
  3683 840 lineto
  3690 840 lineto
  3697 840 lineto
  3704 840 lineto
  3711 840 lineto
  3718 840 lineto
  3725 840 lineto
  3733 840 lineto
  3740 840 lineto
  3747 840 lineto
  3754 840 lineto
  3761 840 lineto
  3768 840 lineto
  3776 840 lineto
  3783 840 lineto
  3790 840 lineto
  3797 840 lineto
  3804 840 lineto
  3811 840 lineto
  3819 840 lineto
  3826 840 lineto
  3833 840 lineto
  3840 840 lineto
  3847 840 lineto
  3854 840 lineto
  3862 840 lineto
  3869 840 lineto
  3876 840 lineto
  3883 840 lineto
  3890 840 lineto
  3897 840 lineto
  3904 840 lineto
  3912 840 lineto
  3919 840 lineto
  3926 840 lineto
  3933 840 lineto
  3940 840 lineto
  3947 840 lineto
  3955 840 lineto
  3962 840 lineto
  3969 840 lineto
  3976 840 lineto
  3983 840 lineto
  3990 840 lineto
  3998 840 lineto
  4005 840 lineto
  4012 840 lineto
  4019 840 lineto
  4026 840 lineto
  4033 840 lineto
  4041 840 lineto
  4048 840 lineto
  4055 840 lineto
  4062 840 lineto
  4069 840 lineto
  4076 840 lineto
  4083 840 lineto
  4091 840 lineto
  4098 840 lineto
  4105 840 lineto
  4112 840 lineto
  4119 840 lineto
  4126 840 lineto
  4134 840 lineto
  4141 840 lineto
  4148 840 lineto
  4155 840 lineto
  4162 840 lineto
  4169 840 lineto
  4177 840 lineto
  4184 840 lineto
  4191 840 lineto
  4198 840 lineto
  4205 840 lineto
  4212 840 lineto
  4220 840 lineto
  4227 840 lineto
  4234 840 lineto
  4241 840 lineto
  4248 840 lineto
  4255 840 lineto
  4262 840 lineto
  4270 840 lineto
  4277 840 lineto
  4284 840 lineto
  4291 840 lineto
  4298 840 lineto
  4305 840 lineto
  4313 840 lineto
  4320 840 lineto
  4327 840 lineto
  4334 840 lineto
  4341 840 lineto
  4348 840 lineto
  4356 840 lineto
  4363 840 lineto
  4370 840 lineto
  4377 840 lineto
  4384 840 lineto
  4391 840 lineto
  4399 840 lineto
  4406 840 lineto
  4413 840 lineto
  4420 840 lineto
  4427 840 lineto
  4434 840 lineto
  4441 840 lineto
  4449 840 lineto
  4456 840 lineto
  4463 840 lineto
  4470 840 lineto
  4477 840 lineto
  4484 840 lineto
  4492 840 lineto
  4499 840 lineto
  4506 840 lineto
  4513 840 lineto
  4520 840 lineto
  4527 840 lineto
  4535 840 lineto
  4542 840 lineto
  4549 840 lineto
  4556 840 lineto
  4563 840 lineto
  4570 840 lineto
  4578 840 lineto
  4585 840 lineto
  4592 840 lineto
  4599 840 lineto
  4606 840 lineto
  4613 840 lineto
  4620 840 lineto
  4628 840 lineto
  4635 840 lineto
  4642 840 lineto
  4649 840 lineto
  4656 840 lineto
  4663 840 lineto
  4671 840 lineto
  4678 840 lineto
  4685 840 lineto
  4692 840 lineto
  4699 840 lineto
  4706 840 lineto
  4714 840 lineto
  4721 840 lineto
  4728 840 lineto
  4735 840 lineto
  4742 840 lineto
  4749 840 lineto
  4757 840 lineto
  4764 840 lineto
  4771 840 lineto
  4778 840 lineto
  4785 840 lineto
  4792 840 lineto
  4799 840 lineto
  4807 840 lineto
  4814 840 lineto
  4821 840 lineto
  4828 840 lineto
  4835 840 lineto
  4842 840 lineto
  4850 840 lineto
  4857 840 lineto
  4864 840 lineto
  4871 840 lineto
  4878 840 lineto
  4885 840 lineto
  4893 840 lineto
  4900 840 lineto
  4907 840 lineto
  4914 840 lineto
  4921 840 lineto
  4928 840 lineto
  4936 840 lineto
  4943 840 lineto
  4950 840 lineto
  4957 840 lineto
  4964 840 lineto
  4971 840 lineto
  4978 840 lineto
  4986 840 lineto
  4993 840 lineto
  5000 840 lineto
  5007 840 lineto
  5014 840 lineto
  5021 840 lineto
  5029 840 lineto
  5036 840 lineto
  5043 840 lineto
  5050 840 lineto
  5057 840 lineto
  5064 840 lineto
  5072 840 lineto
  5079 840 lineto
  5086 840 lineto
  5093 840 lineto
  5100 840 lineto
  5107 840 lineto
  5115 840 lineto
  5122 840 lineto
  5129 840 lineto
  5136 840 lineto
  5143 840 lineto
  5150 840 lineto
  5157 840 lineto
  5165 840 lineto
  5172 840 lineto
  5179 840 lineto
  5186 840 lineto
  5193 840 lineto
  5200 840 lineto
  5208 840 lineto
  5215 840 lineto
  5222 840 lineto
  5229 840 lineto
  5236 840 lineto
  5243 840 lineto
  5251 840 lineto
  5258 840 lineto
  5265 840 lineto
  5272 840 lineto
  5279 840 lineto
  5286 840 lineto
  5294 840 lineto
  5301 840 lineto
  5308 840 lineto
  5315 840 lineto
  5322 840 lineto
  5329 840 lineto
  5336 840 lineto
  5344 840 lineto
  5351 840 lineto
  5358 840 lineto
  5365 840 lineto
  5372 840 lineto
  5379 840 lineto
  5387 840 lineto
  5394 840 lineto
  5401 840 lineto
  5408 840 lineto
  5415 840 lineto
  5422 840 lineto
  5430 840 lineto
  5437 840 lineto
  5444 840 lineto
  5451 840 lineto
  5458 840 lineto
  5465 840 lineto
  5473 840 lineto
  5480 840 lineto
  5487 840 lineto
  5494 840 lineto
  5501 840 lineto
  5508 840 lineto
  5515 840 lineto
  5523 840 lineto
  5530 840 lineto
  5537 840 lineto
  5544 840 lineto
  5551 840 lineto
  5558 840 lineto
  5566 840 lineto
  5573 840 lineto
  5580 840 lineto
  5587 840 lineto
  5594 840 lineto
  5601 840 lineto
  5609 840 lineto
  5616 840 lineto
  5623 840 lineto
  5630 840 lineto
  5637 840 lineto
  5644 840 lineto
  5652 840 lineto
  5659 840 lineto
  5666 840 lineto
  5673 840 lineto
  5680 840 lineto
  5687 840 lineto
  5694 840 lineto
  5702 840 lineto
  5709 840 lineto
  5716 840 lineto
  5723 840 lineto
  5730 840 lineto
  5737 840 lineto
  5745 840 lineto
  5752 840 lineto
  5759 840 lineto
  5766 840 lineto
  5773 840 lineto
  5780 840 lineto
  5788 840 lineto
  5795 840 lineto
  5802 840 lineto
  5809 840 lineto
  5816 840 lineto
  5823 840 lineto
  5831 840 lineto
  5838 840 lineto
  5845 840 lineto
  5852 840 lineto
  5859 840 lineto
  5866 840 lineto
  5873 840 lineto
  5881 840 lineto
  5888 840 lineto
  5895 840 lineto
  5902 840 lineto
  5909 840 lineto
  5916 840 lineto
  5924 840 lineto
  5931 840 lineto
  5938 840 lineto
  5945 840 lineto
  5952 840 lineto
  5959 840 lineto
  5967 840 lineto
  5974 840 lineto
  5981 840 lineto
  5988 840 lineto
  5995 840 lineto
  6002 840 lineto
  6010 840 lineto
  6017 840 lineto
  6024 840 lineto
  6031 840 lineto
  6038 840 lineto
  6045 840 lineto
  6052 840 lineto
  6060 840 lineto
  6067 840 lineto
  6074 840 lineto
  6081 840 lineto
  6088 840 lineto
  6095 840 lineto
  6103 840 lineto
  6110 840 lineto
  6117 840 lineto
  6124 840 lineto
  6131 840 lineto
  6138 840 lineto
  6146 840 lineto
  6153 840 lineto
  6160 840 lineto
  6167 840 lineto
  6174 840 lineto
  6181 840 lineto
  6189 840 lineto
  6196 840 lineto
  6203 840 lineto
  6210 840 lineto
  6217 840 lineto
  6224 840 lineto
  6231 840 lineto
  6239 840 lineto
  6246 840 lineto
  6253 840 lineto
  6260 840 lineto
  6267 840 lineto
  6274 840 lineto
  6282 840 lineto
  6289 840 lineto
  6296 840 lineto
  6303 840 lineto
  6310 840 lineto
  6317 840 lineto
  6325 840 lineto
  6332 840 lineto
  6339 840 lineto
  6346 840 lineto
  6353 840 lineto
  6360 840 lineto
  6368 840 lineto
  6375 840 lineto
  6382 840 lineto
  6389 840 lineto
  6396 840 lineto
  6403 840 lineto
  6410 840 lineto
  6418 840 lineto
  6425 840 lineto
  6432 840 lineto
  6439 840 lineto
  6446 840 lineto
  6453 840 lineto
  6461 840 lineto
  6468 840 lineto
  6475 840 lineto
  6482 840 lineto
  6489 840 lineto
  6496 840 lineto
  6504 840 lineto
  6511 840 lineto
  6518 840 lineto
  6525 840 lineto
  6532 840 lineto
  6539 840 lineto
  6547 840 lineto
  6554 840 lineto
  6561 840 lineto
  6568 840 lineto
  6575 840 lineto
  6582 840 lineto
  6589 840 lineto
  6597 840 lineto
  6604 840 lineto
  6611 840 lineto
  6618 840 lineto
  6625 840 lineto
  6632 840 lineto
  6640 840 lineto
  6647 840 lineto
  6654 840 lineto
  6661 840 lineto
  6668 840 lineto
  6675 840 lineto
  6683 840 lineto
  6690 840 lineto
  6697 840 lineto
  6704 840 lineto
  6711 840 lineto
  6718 840 lineto
  6726 840 lineto
  6733 840 lineto
  6740 840 lineto
  6747 840 lineto
  6754 840 lineto
  6761 840 lineto
  6768 840 lineto
  6776 840 lineto
  6783 840 lineto
  6790 840 lineto
  6797 840 lineto
  6804 840 lineto
  6811 840 lineto
  6819 840 lineto
  6826 840 lineto
  6833 840 lineto
  6840 840 lineto
  6847 840 lineto
  6854 840 lineto
  6862 840 lineto
  6869 840 lineto
  6876 840 lineto
  6883 840 lineto
  6890 840 lineto
  6897 840 lineto
  6905 840 lineto
  6912 840 lineto
  6919 840 lineto
  6926 840 lineto
  6933 840 lineto
  6940 840 lineto
  6947 840 lineto
  6955 840 lineto
  6962 840 lineto
  6969 840 lineto
  6976 840 lineto
  6983 840 lineto
  6990 840 lineto
  6998 840 lineto
  7005 840 lineto
  7012 840 lineto
  7019 840 lineto
  7026 840 lineto
  7033 840 lineto
  7041 840 lineto
  7048 840 lineto
  7055 840 lineto
  7062 840 lineto
  7069 840 lineto
  7076 840 lineto
  7084 840 lineto
  7091 840 lineto
  7098 840 lineto
  7105 840 lineto
  7112 840 lineto
  7119 840 lineto
  7126 840 lineto
  7134 840 lineto
  7141 840 lineto
  7148 840 lineto
  7155 840 lineto
  7162 840 lineto
  7169 840 lineto
  7177 840 lineto
  7184 840 lineto
  7191 840 lineto
  7198 840 lineto
  7205 840 lineto
  7212 840 lineto
  7220 840 lineto
  7227 840 lineto
  7234 840 lineto
  7241 840 lineto
  7248 840 lineto
  7255 840 lineto
  7263 840 lineto
  7270 840 lineto
  7277 840 lineto
  7284 840 lineto
  7291 840 lineto
  7298 840 lineto
  7305 840 lineto
  7313 840 lineto
  7320 840 lineto
  7327 840 lineto
  7334 840 lineto
  7341 840 lineto
  7348 840 lineto
  7356 840 lineto
  7363 840 lineto
  7370 840 lineto
  7377 840 lineto
  7384 840 lineto
  7391 840 lineto
  7399 840 lineto
  7406 840 lineto
  7413 840 lineto
  7420 840 lineto
  7427 840 lineto
  7434 840 lineto
  7442 840 lineto
  7449 840 lineto
  7456 840 lineto
  7463 840 lineto
  7470 840 lineto
  7477 840 lineto
  7484 840 lineto
  7492 840 lineto
  7499 840 lineto
  7506 840 lineto
  7513 840 lineto
  7520 840 lineto
  7527 840 lineto
  7535 840 lineto
  7542 840 lineto
  7549 840 lineto
  7556 840 lineto
  7563 840 lineto
  7570 840 lineto
  7578 840 lineto
  7585 840 lineto
  7592 840 lineto
  7599 840 lineto
  7606 840 lineto
  7613 840 lineto
  7621 840 lineto
  7628 840 lineto
  7635 840 lineto
  7642 840 lineto
  7649 840 lineto
  7656 840 lineto
  7663 840 lineto
  7671 840 lineto
  7678 840 lineto
  7685 840 lineto
  7692 840 lineto
  7699 840 lineto
  7706 840 lineto
  7714 840 lineto
  7721 840 lineto
  7728 840 lineto
  7735 840 lineto
  7742 840 lineto
  7749 840 lineto
  7757 840 lineto
  7764 840 lineto
  7771 840 lineto
  7778 840 lineto
  7785 840 lineto
  7792 840 lineto
  7800 840 lineto
  7807 840 lineto
  7814 840 lineto
  7821 840 lineto
  7828 840 lineto
  7835 840 lineto
  7842 840 lineto
  7850 840 lineto
  7857 840 lineto
  7864 840 lineto
  7871 840 lineto
  7878 840 lineto
  7885 840 lineto
  7893 840 lineto
  7900 840 lineto
  7907 840 lineto
  7914 840 lineto
  7921 840 lineto
  7928 840 lineto
  7936 840 lineto
  7943 840 lineto
  7950 840 lineto
  7957 840 lineto
  7964 840 lineto
  7971 840 lineto
  7979 840 lineto
  7986 840 lineto
  7993 840 lineto
stroke

newpath
stroke

showpage

