%!PS-Adobe-2.0
0 840 translate
270 rotate
0.100000 0.100000 scale
10 setlinewidth
10 setlinewidth
newpath
  840 720 moveto
  7160 0 rlineto
  0 4640 rlineto
  -7160 0 rlineto
  closepath
stroke

/Times-Roman findfont 120 scalefont setfont
3226 360 moveto
(Energy \050eV\051) show
gsave
600 2206 moveto
/Times-Roman findfont 120 scalefont setfont
90 rotate
(Intensity \050x10) show
/Times-Roman findfont 90 scalefont setfont
0 60 rmoveto
(-1) show
0 -60 rmoveto
/Times-Roman findfont 120 scalefont setfont
(\051) show
stroke
grestore
/Times-Roman findfont 80 scalefont setfont
newpath
  1317 720 moveto
  0 30 rlineto
  1317 5360 moveto
  0 -10 rlineto
stroke
  1257 600 moveto
  (855) show
newpath
  1795 720 moveto
  0 30 rlineto
  1795 5360 moveto
  0 -10 rlineto
stroke
  1735 600 moveto
  (857) show
newpath
  2272 720 moveto
  0 30 rlineto
  2272 5360 moveto
  0 -10 rlineto
stroke
  2212 600 moveto
  (859) show
newpath
  2749 720 moveto
  0 30 rlineto
  2749 5360 moveto
  0 -10 rlineto
stroke
  2689 600 moveto
  (861) show
newpath
  3227 720 moveto
  0 30 rlineto
  3227 5360 moveto
  0 -10 rlineto
stroke
  3167 600 moveto
  (863) show
newpath
  3704 720 moveto
  0 30 rlineto
  3704 5360 moveto
  0 -10 rlineto
stroke
  3644 600 moveto
  (865) show
newpath
  4181 720 moveto
  0 30 rlineto
  4181 5360 moveto
  0 -10 rlineto
stroke
  4121 600 moveto
  (867) show
newpath
  4659 720 moveto
  0 30 rlineto
  4659 5360 moveto
  0 -10 rlineto
stroke
  4599 600 moveto
  (869) show
newpath
  5136 720 moveto
  0 30 rlineto
  5136 5360 moveto
  0 -10 rlineto
stroke
  5076 600 moveto
  (871) show
newpath
  5613 720 moveto
  0 30 rlineto
  5613 5360 moveto
  0 -10 rlineto
stroke
  5553 600 moveto
  (873) show
newpath
  6091 720 moveto
  0 30 rlineto
  6091 5360 moveto
  0 -10 rlineto
stroke
  6031 600 moveto
  (875) show
newpath
  6568 720 moveto
  0 30 rlineto
  6568 5360 moveto
  0 -10 rlineto
stroke
  6508 600 moveto
  (877) show
newpath
  7045 720 moveto
  0 30 rlineto
  7045 5360 moveto
  0 -10 rlineto
stroke
  6985 600 moveto
  (879) show
newpath
  7523 720 moveto
  0 30 rlineto
  7523 5360 moveto
  0 -10 rlineto
stroke
  7463 600 moveto
  (881) show
newpath
  840 840 moveto
  20 0 rlineto
  8000 840 moveto
  -20 0 rlineto
stroke
  720 820 moveto
  (0.0) show
newpath
  840 2235 moveto
  20 0 rlineto
  8000 2235 moveto
  -20 0 rlineto
stroke
  720 2215 moveto
  (1.0) show
newpath
  840 3630 moveto
  20 0 rlineto
  8000 3630 moveto
  -20 0 rlineto
stroke
  720 3610 moveto
  (2.0) show
newpath
  840 5026 moveto
  20 0 rlineto
  8000 5026 moveto
  -20 0 rlineto
stroke
  720 5006 moveto
  (3.0) show

5 setlinewidth
newpath
  840 876 moveto
  847 881 lineto
  854 885 lineto
  861 889 lineto
  869 893 lineto
  876 897 lineto
  883 901 lineto
  890 905 lineto
  897 908 lineto
  904 911 lineto
  912 914 lineto
  919 916 lineto
  926 919 lineto
  933 921 lineto
  940 924 lineto
  947 926 lineto
  955 928 lineto
  962 930 lineto
  969 933 lineto
  976 935 lineto
  983 938 lineto
  990 940 lineto
  998 943 lineto
  1005 946 lineto
  1012 949 lineto
  1019 952 lineto
  1026 955 lineto
  1033 958 lineto
  1040 961 lineto
  1048 965 lineto
  1055 969 lineto
  1062 973 lineto
  1069 977 lineto
  1076 981 lineto
  1083 985 lineto
  1091 990 lineto
  1098 995 lineto
  1105 1000 lineto
  1112 1006 lineto
  1119 1012 lineto
  1126 1018 lineto
  1134 1024 lineto
  1141 1031 lineto
  1148 1039 lineto
  1155 1046 lineto
  1162 1055 lineto
  1169 1063 lineto
  1177 1073 lineto
  1184 1083 lineto
  1191 1093 lineto
  1198 1105 lineto
  1205 1117 lineto
  1212 1130 lineto
  1219 1144 lineto
  1227 1160 lineto
  1234 1176 lineto
  1241 1194 lineto
  1248 1214 lineto
  1255 1235 lineto
  1262 1259 lineto
  1270 1284 lineto
  1277 1312 lineto
  1284 1343 lineto
  1291 1377 lineto
  1298 1415 lineto
  1305 1457 lineto
  1313 1503 lineto
  1320 1555 lineto
  1327 1612 lineto
  1334 1676 lineto
  1341 1747 lineto
  1348 1826 lineto
  1356 1914 lineto
  1363 2010 lineto
  1370 2117 lineto
  1377 2233 lineto
  1384 2359 lineto
  1391 2496 lineto
  1398 2642 lineto
  1406 2798 lineto
  1413 2962 lineto
  1420 3132 lineto
  1427 3308 lineto
  1434 3487 lineto
  1441 3667 lineto
  1449 3846 lineto
  1456 4021 lineto
  1463 4191 lineto
  1470 4352 lineto
  1477 4505 lineto
  1484 4646 lineto
  1492 4774 lineto
  1499 4890 lineto
  1506 4992 lineto
  1513 5080 lineto
  1520 5153 lineto
  1527 5213 lineto
  1535 5257 lineto
  1542 5286 lineto
  1549 5300 lineto
  1556 5298 lineto
  1563 5278 lineto
  1570 5241 lineto
  1577 5186 lineto
  1585 5113 lineto
  1592 5021 lineto
  1599 4910 lineto
  1606 4782 lineto
  1613 4639 lineto
  1620 4481 lineto
  1628 4312 lineto
  1635 4134 lineto
  1642 3949 lineto
  1649 3762 lineto
  1656 3576 lineto
  1663 3392 lineto
  1671 3213 lineto
  1678 3043 lineto
  1685 2882 lineto
  1692 2731 lineto
  1699 2593 lineto
  1706 2466 lineto
  1714 2352 lineto
  1721 2251 lineto
  1728 2161 lineto
  1735 2081 lineto
  1742 2013 lineto
  1749 1954 lineto
  1756 1903 lineto
  1764 1860 lineto
  1771 1824 lineto
  1778 1794 lineto
  1785 1770 lineto
  1792 1750 lineto
  1799 1734 lineto
  1807 1722 lineto
  1814 1713 lineto
  1821 1708 lineto
  1828 1705 lineto
  1835 1705 lineto
  1842 1708 lineto
  1850 1715 lineto
  1857 1724 lineto
  1864 1737 lineto
  1871 1752 lineto
  1878 1771 lineto
  1885 1793 lineto
  1893 1818 lineto
  1900 1845 lineto
  1907 1874 lineto
  1914 1904 lineto
  1921 1935 lineto
  1928 1965 lineto
  1935 1994 lineto
  1943 2020 lineto
  1950 2042 lineto
  1957 2060 lineto
  1964 2073 lineto
  1971 2080 lineto
  1978 2080 lineto
  1986 2073 lineto
  1993 2060 lineto
  2000 2039 lineto
  2007 2012 lineto
  2014 1979 lineto
  2021 1941 lineto
  2029 1898 lineto
  2036 1852 lineto
  2043 1803 lineto
  2050 1753 lineto
  2057 1702 lineto
  2064 1651 lineto
  2072 1601 lineto
  2079 1552 lineto
  2086 1506 lineto
  2093 1463 lineto
  2100 1422 lineto
  2107 1385 lineto
  2114 1351 lineto
  2122 1320 lineto
  2129 1292 lineto
  2136 1268 lineto
  2143 1246 lineto
  2150 1228 lineto
  2157 1211 lineto
  2165 1198 lineto
  2172 1186 lineto
  2179 1176 lineto
  2186 1168 lineto
  2193 1161 lineto
  2200 1156 lineto
  2208 1151 lineto
  2215 1146 lineto
  2222 1142 lineto
  2229 1138 lineto
  2236 1133 lineto
  2243 1129 lineto
  2251 1123 lineto
  2258 1118 lineto
  2265 1111 lineto
  2272 1104 lineto
  2279 1096 lineto
  2286 1088 lineto
  2293 1080 lineto
  2301 1071 lineto
  2308 1062 lineto
  2315 1052 lineto
  2322 1043 lineto
  2329 1033 lineto
  2336 1024 lineto
  2344 1015 lineto
  2351 1007 lineto
  2358 999 lineto
  2365 991 lineto
  2372 983 lineto
  2379 976 lineto
  2387 970 lineto
  2394 964 lineto
  2401 958 lineto
  2408 953 lineto
  2415 948 lineto
  2422 943 lineto
  2430 939 lineto
  2437 935 lineto
  2444 931 lineto
  2451 928 lineto
  2458 925 lineto
  2465 922 lineto
  2472 919 lineto
  2480 916 lineto
  2487 914 lineto
  2494 912 lineto
  2501 910 lineto
  2508 908 lineto
  2515 906 lineto
  2523 904 lineto
  2530 903 lineto
  2537 901 lineto
  2544 900 lineto
  2551 898 lineto
  2558 897 lineto
  2566 896 lineto
  2573 895 lineto
  2580 894 lineto
  2587 893 lineto
  2594 892 lineto
  2601 891 lineto
  2609 890 lineto
  2616 889 lineto
  2623 888 lineto
  2630 887 lineto
  2637 886 lineto
  2644 886 lineto
  2651 885 lineto
  2659 884 lineto
  2666 884 lineto
  2673 883 lineto
  2680 882 lineto
  2687 882 lineto
  2694 881 lineto
  2702 881 lineto
  2709 880 lineto
  2716 880 lineto
  2723 879 lineto
  2730 879 lineto
  2737 878 lineto
  2745 878 lineto
  2752 877 lineto
  2759 877 lineto
  2766 877 lineto
  2773 876 lineto
  2780 876 lineto
  2788 876 lineto
  2795 876 lineto
  2802 875 lineto
  2809 875 lineto
  2816 875 lineto
  2823 875 lineto
  2830 875 lineto
  2838 875 lineto
  2845 875 lineto
  2852 875 lineto
  2859 875 lineto
  2866 875 lineto
  2873 875 lineto
  2881 875 lineto
  2888 875 lineto
  2895 876 lineto
  2902 876 lineto
  2909 876 lineto
  2916 877 lineto
  2924 877 lineto
  2931 878 lineto
  2938 879 lineto
  2945 880 lineto
  2952 881 lineto
  2959 882 lineto
  2967 883 lineto
  2974 885 lineto
  2981 886 lineto
  2988 888 lineto
  2995 890 lineto
  3002 892 lineto
  3009 895 lineto
  3017 898 lineto
  3024 901 lineto
  3031 904 lineto
  3038 907 lineto
  3045 911 lineto
  3052 915 lineto
  3060 919 lineto
  3067 923 lineto
  3074 928 lineto
  3081 932 lineto
  3088 937 lineto
  3095 941 lineto
  3103 945 lineto
  3110 948 lineto
  3117 952 lineto
  3124 954 lineto
  3131 957 lineto
  3138 958 lineto
  3146 959 lineto
  3153 960 lineto
  3160 959 lineto
  3167 958 lineto
  3174 956 lineto
  3181 954 lineto
  3188 951 lineto
  3196 948 lineto
  3203 944 lineto
  3210 940 lineto
  3217 935 lineto
  3224 931 lineto
  3231 926 lineto
  3239 921 lineto
  3246 916 lineto
  3253 912 lineto
  3260 907 lineto
  3267 903 lineto
  3274 899 lineto
  3282 895 lineto
  3289 891 lineto
  3296 888 lineto
  3303 885 lineto
  3310 882 lineto
  3317 880 lineto
  3325 878 lineto
  3332 876 lineto
  3339 874 lineto
  3346 872 lineto
  3353 871 lineto
  3360 869 lineto
  3367 868 lineto
  3375 867 lineto
  3382 866 lineto
  3389 865 lineto
  3396 864 lineto
  3403 864 lineto
  3410 863 lineto
  3418 862 lineto
  3425 862 lineto
  3432 861 lineto
  3439 861 lineto
  3446 860 lineto
  3453 860 lineto
  3461 859 lineto
  3468 859 lineto
  3475 859 lineto
  3482 858 lineto
  3489 858 lineto
  3496 858 lineto
  3504 857 lineto
  3511 857 lineto
  3518 857 lineto
  3525 857 lineto
  3532 856 lineto
  3539 856 lineto
  3546 856 lineto
  3554 856 lineto
  3561 856 lineto
  3568 855 lineto
  3575 855 lineto
  3582 855 lineto
  3589 855 lineto
  3597 855 lineto
  3604 855 lineto
  3611 855 lineto
  3618 854 lineto
  3625 854 lineto
  3632 854 lineto
  3640 854 lineto
  3647 854 lineto
  3654 854 lineto
  3661 854 lineto
  3668 854 lineto
  3675 853 lineto
  3683 853 lineto
  3690 853 lineto
  3697 853 lineto
  3704 853 lineto
  3711 853 lineto
  3718 853 lineto
  3725 853 lineto
  3733 853 lineto
  3740 853 lineto
  3747 853 lineto
  3754 852 lineto
  3761 852 lineto
  3768 852 lineto
  3776 852 lineto
  3783 852 lineto
  3790 852 lineto
  3797 852 lineto
  3804 852 lineto
  3811 852 lineto
  3819 852 lineto
  3826 852 lineto
  3833 852 lineto
  3840 852 lineto
  3847 852 lineto
  3854 852 lineto
  3862 852 lineto
  3869 852 lineto
  3876 852 lineto
  3883 851 lineto
  3890 851 lineto
  3897 851 lineto
  3904 851 lineto
  3912 851 lineto
  3919 851 lineto
  3926 851 lineto
  3933 851 lineto
  3940 851 lineto
  3947 851 lineto
  3955 851 lineto
  3962 851 lineto
  3969 851 lineto
  3976 851 lineto
  3983 851 lineto
  3990 851 lineto
  3998 851 lineto
  4005 851 lineto
  4012 851 lineto
  4019 851 lineto
  4026 851 lineto
  4033 851 lineto
  4041 851 lineto
  4048 851 lineto
  4055 851 lineto
  4062 851 lineto
  4069 851 lineto
  4076 851 lineto
  4083 851 lineto
  4091 851 lineto
  4098 851 lineto
  4105 851 lineto
  4112 851 lineto
  4119 851 lineto
  4126 851 lineto
  4134 851 lineto
  4141 851 lineto
  4148 851 lineto
  4155 851 lineto
  4162 851 lineto
  4169 851 lineto
  4177 851 lineto
  4184 851 lineto
  4191 851 lineto
  4198 851 lineto
  4205 851 lineto
  4212 851 lineto
  4220 851 lineto
  4227 851 lineto
  4234 851 lineto
  4241 851 lineto
  4248 851 lineto
  4255 851 lineto
  4262 851 lineto
  4270 851 lineto
  4277 851 lineto
  4284 851 lineto
  4291 851 lineto
  4298 851 lineto
  4305 851 lineto
  4313 851 lineto
  4320 851 lineto
  4327 851 lineto
  4334 851 lineto
  4341 851 lineto
  4348 851 lineto
  4356 851 lineto
  4363 851 lineto
  4370 851 lineto
  4377 851 lineto
  4384 851 lineto
  4391 851 lineto
  4399 851 lineto
  4406 851 lineto
  4413 851 lineto
  4420 851 lineto
  4427 851 lineto
  4434 851 lineto
  4441 851 lineto
  4449 852 lineto
  4456 852 lineto
  4463 852 lineto
  4470 852 lineto
  4477 852 lineto
  4484 852 lineto
  4492 852 lineto
  4499 852 lineto
  4506 852 lineto
  4513 852 lineto
  4520 852 lineto
  4527 852 lineto
  4535 852 lineto
  4542 852 lineto
  4549 852 lineto
  4556 852 lineto
  4563 852 lineto
  4570 853 lineto
  4578 853 lineto
  4585 853 lineto
  4592 853 lineto
  4599 853 lineto
  4606 853 lineto
  4613 853 lineto
  4620 853 lineto
  4628 853 lineto
  4635 853 lineto
  4642 853 lineto
  4649 853 lineto
  4656 854 lineto
  4663 854 lineto
  4671 854 lineto
  4678 854 lineto
  4685 854 lineto
  4692 854 lineto
  4699 854 lineto
  4706 854 lineto
  4714 854 lineto
  4721 855 lineto
  4728 855 lineto
  4735 855 lineto
  4742 855 lineto
  4749 855 lineto
  4757 855 lineto
  4764 855 lineto
  4771 856 lineto
  4778 856 lineto
  4785 856 lineto
  4792 856 lineto
  4799 856 lineto
  4807 856 lineto
  4814 856 lineto
  4821 857 lineto
  4828 857 lineto
  4835 857 lineto
  4842 857 lineto
  4850 857 lineto
  4857 858 lineto
  4864 858 lineto
  4871 858 lineto
  4878 858 lineto
  4885 858 lineto
  4893 859 lineto
  4900 859 lineto
  4907 859 lineto
  4914 859 lineto
  4921 860 lineto
  4928 860 lineto
  4936 860 lineto
  4943 861 lineto
  4950 861 lineto
  4957 861 lineto
  4964 861 lineto
  4971 862 lineto
  4978 862 lineto
  4986 862 lineto
  4993 863 lineto
  5000 863 lineto
  5007 863 lineto
  5014 864 lineto
  5021 864 lineto
  5029 865 lineto
  5036 865 lineto
  5043 865 lineto
  5050 866 lineto
  5057 866 lineto
  5064 867 lineto
  5072 867 lineto
  5079 868 lineto
  5086 868 lineto
  5093 869 lineto
  5100 869 lineto
  5107 870 lineto
  5115 871 lineto
  5122 871 lineto
  5129 872 lineto
  5136 872 lineto
  5143 873 lineto
  5150 874 lineto
  5157 875 lineto
  5165 875 lineto
  5172 876 lineto
  5179 877 lineto
  5186 878 lineto
  5193 879 lineto
  5200 880 lineto
  5208 881 lineto
  5215 882 lineto
  5222 883 lineto
  5229 884 lineto
  5236 885 lineto
  5243 886 lineto
  5251 888 lineto
  5258 889 lineto
  5265 890 lineto
  5272 892 lineto
  5279 893 lineto
  5286 895 lineto
  5294 897 lineto
  5301 899 lineto
  5308 901 lineto
  5315 903 lineto
  5322 905 lineto
  5329 907 lineto
  5336 909 lineto
  5344 912 lineto
  5351 915 lineto
  5358 918 lineto
  5365 921 lineto
  5372 924 lineto
  5379 928 lineto
  5387 932 lineto
  5394 936 lineto
  5401 940 lineto
  5408 945 lineto
  5415 950 lineto
  5422 956 lineto
  5430 962 lineto
  5437 968 lineto
  5444 975 lineto
  5451 983 lineto
  5458 992 lineto
  5465 1002 lineto
  5473 1012 lineto
  5480 1024 lineto
  5487 1037 lineto
  5494 1051 lineto
  5501 1067 lineto
  5508 1085 lineto
  5515 1104 lineto
  5523 1126 lineto
  5530 1150 lineto
  5537 1176 lineto
  5544 1206 lineto
  5551 1237 lineto
  5558 1272 lineto
  5566 1310 lineto
  5573 1350 lineto
  5580 1394 lineto
  5587 1440 lineto
  5594 1488 lineto
  5601 1539 lineto
  5609 1591 lineto
  5616 1645 lineto
  5623 1699 lineto
  5630 1753 lineto
  5637 1806 lineto
  5644 1858 lineto
  5652 1907 lineto
  5659 1953 lineto
  5666 1995 lineto
  5673 2032 lineto
  5680 2063 lineto
  5687 2088 lineto
  5694 2106 lineto
  5702 2116 lineto
  5709 2119 lineto
  5716 2114 lineto
  5723 2102 lineto
  5730 2083 lineto
  5737 2059 lineto
  5745 2029 lineto
  5752 1995 lineto
  5759 1958 lineto
  5766 1920 lineto
  5773 1882 lineto
  5780 1845 lineto
  5788 1811 lineto
  5795 1780 lineto
  5802 1753 lineto
  5809 1732 lineto
  5816 1717 lineto
  5823 1708 lineto
  5831 1705 lineto
  5838 1708 lineto
  5845 1717 lineto
  5852 1731 lineto
  5859 1751 lineto
  5866 1774 lineto
  5873 1801 lineto
  5881 1830 lineto
  5888 1860 lineto
  5895 1890 lineto
  5902 1919 lineto
  5909 1946 lineto
  5916 1971 lineto
  5924 1991 lineto
  5931 2006 lineto
  5938 2016 lineto
  5945 2020 lineto
  5952 2018 lineto
  5959 2009 lineto
  5967 1995 lineto
  5974 1974 lineto
  5981 1948 lineto
  5988 1917 lineto
  5995 1882 lineto
  6002 1843 lineto
  6010 1802 lineto
  6017 1758 lineto
  6024 1714 lineto
  6031 1669 lineto
  6038 1624 lineto
  6045 1580 lineto
  6052 1536 lineto
  6060 1495 lineto
  6067 1455 lineto
  6074 1416 lineto
  6081 1380 lineto
  6088 1346 lineto
  6095 1313 lineto
  6103 1283 lineto
  6110 1254 lineto
  6117 1227 lineto
  6124 1201 lineto
  6131 1178 lineto
  6138 1156 lineto
  6146 1135 lineto
  6153 1116 lineto
  6160 1098 lineto
  6167 1082 lineto
  6174 1067 lineto
  6181 1053 lineto
  6189 1040 lineto
  6196 1029 lineto
  6203 1018 lineto
  6210 1008 lineto
  6217 1000 lineto
  6224 992 lineto
  6231 984 lineto
  6239 978 lineto
  6246 971 lineto
  6253 966 lineto
  6260 961 lineto
  6267 956 lineto
  6274 952 lineto
  6282 948 lineto
  6289 944 lineto
  6296 941 lineto
  6303 938 lineto
  6310 935 lineto
  6317 933 lineto
  6325 930 lineto
  6332 928 lineto
  6339 926 lineto
  6346 923 lineto
  6353 921 lineto
  6360 919 lineto
  6368 917 lineto
  6375 915 lineto
  6382 912 lineto
  6389 910 lineto
  6396 908 lineto
  6403 906 lineto
  6410 903 lineto
  6418 901 lineto
  6425 899 lineto
  6432 896 lineto
  6439 894 lineto
  6446 892 lineto
  6453 890 lineto
  6461 888 lineto
  6468 887 lineto
  6475 885 lineto
  6482 883 lineto
  6489 882 lineto
  6496 880 lineto
  6504 879 lineto
  6511 878 lineto
  6518 877 lineto
  6525 876 lineto
  6532 874 lineto
  6539 874 lineto
  6547 873 lineto
  6554 872 lineto
  6561 871 lineto
  6568 870 lineto
  6575 869 lineto
  6582 869 lineto
  6589 868 lineto
  6597 867 lineto
  6604 867 lineto
  6611 866 lineto
  6618 866 lineto
  6625 865 lineto
  6632 865 lineto
  6640 864 lineto
  6647 864 lineto
  6654 863 lineto
  6661 863 lineto
  6668 862 lineto
  6675 862 lineto
  6683 862 lineto
  6690 861 lineto
  6697 861 lineto
  6704 861 lineto
  6711 860 lineto
  6718 860 lineto
  6726 860 lineto
  6733 859 lineto
  6740 859 lineto
  6747 859 lineto
  6754 858 lineto
  6761 858 lineto
  6768 858 lineto
  6776 858 lineto
  6783 857 lineto
  6790 857 lineto
  6797 857 lineto
  6804 857 lineto
  6811 857 lineto
  6819 856 lineto
  6826 856 lineto
  6833 856 lineto
  6840 856 lineto
  6847 856 lineto
  6854 855 lineto
  6862 855 lineto
  6869 855 lineto
  6876 855 lineto
  6883 855 lineto
  6890 855 lineto
  6897 855 lineto
  6905 854 lineto
  6912 854 lineto
  6919 854 lineto
  6926 854 lineto
  6933 854 lineto
  6940 854 lineto
  6947 854 lineto
  6955 854 lineto
  6962 854 lineto
  6969 854 lineto
  6976 854 lineto
  6983 854 lineto
  6990 854 lineto
  6998 854 lineto
  7005 854 lineto
  7012 854 lineto
  7019 854 lineto
  7026 854 lineto
  7033 854 lineto
  7041 854 lineto
  7048 854 lineto
  7055 855 lineto
  7062 855 lineto
  7069 855 lineto
  7076 856 lineto
  7084 856 lineto
  7091 856 lineto
  7098 857 lineto
  7105 857 lineto
  7112 858 lineto
  7119 859 lineto
  7126 860 lineto
  7134 860 lineto
  7141 861 lineto
  7148 863 lineto
  7155 864 lineto
  7162 865 lineto
  7169 866 lineto
  7177 868 lineto
  7184 870 lineto
  7191 871 lineto
  7198 873 lineto
  7205 874 lineto
  7212 876 lineto
  7220 878 lineto
  7227 879 lineto
  7234 880 lineto
  7241 881 lineto
  7248 882 lineto
  7255 883 lineto
  7263 883 lineto
  7270 883 lineto
  7277 883 lineto
  7284 882 lineto
  7291 881 lineto
  7298 880 lineto
  7305 879 lineto
  7313 877 lineto
  7320 876 lineto
  7327 874 lineto
  7334 872 lineto
  7341 870 lineto
  7348 869 lineto
  7356 867 lineto
  7363 865 lineto
  7370 863 lineto
  7377 862 lineto
  7384 860 lineto
  7391 859 lineto
  7399 858 lineto
  7406 857 lineto
  7413 856 lineto
  7420 855 lineto
  7427 854 lineto
  7434 853 lineto
  7442 853 lineto
  7449 852 lineto
  7456 852 lineto
  7463 851 lineto
  7470 851 lineto
  7477 850 lineto
  7484 850 lineto
  7492 850 lineto
  7499 849 lineto
  7506 849 lineto
  7513 849 lineto
  7520 849 lineto
  7527 848 lineto
  7535 848 lineto
  7542 848 lineto
  7549 848 lineto
  7556 848 lineto
  7563 847 lineto
  7570 847 lineto
  7578 847 lineto
  7585 847 lineto
  7592 847 lineto
  7599 847 lineto
  7606 847 lineto
  7613 847 lineto
  7621 847 lineto
  7628 846 lineto
  7635 846 lineto
  7642 846 lineto
  7649 846 lineto
  7656 846 lineto
  7663 846 lineto
  7671 846 lineto
  7678 846 lineto
  7685 846 lineto
  7692 846 lineto
  7699 846 lineto
  7706 846 lineto
  7714 846 lineto
  7721 845 lineto
  7728 845 lineto
  7735 845 lineto
  7742 845 lineto
  7749 845 lineto
  7757 845 lineto
  7764 845 lineto
  7771 845 lineto
  7778 845 lineto
  7785 845 lineto
  7792 845 lineto
  7800 845 lineto
  7807 845 lineto
  7814 845 lineto
  7821 845 lineto
  7828 845 lineto
  7835 845 lineto
  7842 845 lineto
  7850 845 lineto
  7857 845 lineto
  7864 845 lineto
  7871 845 lineto
  7878 844 lineto
  7885 844 lineto
  7893 844 lineto
  7900 844 lineto
  7907 844 lineto
  7914 844 lineto
  7921 844 lineto
  7928 844 lineto
  7936 844 lineto
  7943 844 lineto
  7950 844 lineto
  7957 843 lineto
  7964 843 lineto
  7971 843 lineto
  7979 843 lineto
  7986 842 lineto
  7993 842 lineto
stroke

newpath
  1463 840 moveto
  0 221 rlineto
  1470 840 moveto
  0 837 rlineto
  1499 840 moveto
  0 2230 rlineto
  1506 840 moveto
  0 11 rlineto
  1513 840 moveto
  0 1 rlineto
  1556 840 moveto
  0 561 rlineto
  1563 840 moveto
  0 93 rlineto
  1592 840 moveto
  0 1523 rlineto
  1606 840 moveto
  0 1968 rlineto
  1742 840 moveto
  0 1 rlineto
  1814 840 moveto
  0 134 rlineto
  1821 840 moveto
  0 119 rlineto
  1900 840 moveto
  0 56 rlineto
  1943 840 moveto
  0 138 rlineto
  1964 840 moveto
  0 530 rlineto
  1986 840 moveto
  0 59 rlineto
  2007 840 moveto
  0 627 rlineto
  2043 840 moveto
  0 43 rlineto
  2050 840 moveto
  0 32 rlineto
  2100 840 moveto
  0 13 rlineto
  2150 840 moveto
  0 4 rlineto
  2236 840 moveto
  0 79 rlineto
  2265 840 moveto
  0 95 rlineto
  2336 840 moveto
  0 17 rlineto
  2358 840 moveto
  0 1 rlineto
  2379 840 moveto
  0 1 rlineto
  3017 840 moveto
  0 2 rlineto
  3024 840 moveto
  0 2 rlineto
  3081 840 moveto
  0 1 rlineto
  3117 840 moveto
  0 16 rlineto
  3124 840 moveto
  0 13 rlineto
  3131 840 moveto
  0 38 rlineto
  3138 840 moveto
  0 13 rlineto
  3181 840 moveto
  0 28 rlineto
  3196 840 moveto
  0 37 rlineto
  5637 840 moveto
  0 262 rlineto
  5659 840 moveto
  0 259 rlineto
  5716 840 moveto
  0 404 rlineto
  5723 840 moveto
  0 787 rlineto
  5916 840 moveto
  0 662 rlineto
  5974 840 moveto
  0 788 rlineto
  6031 840 moveto
  0 30 rlineto
  6038 840 moveto
  0 45 rlineto
  6088 840 moveto
  0 103 rlineto
  6095 840 moveto
  0 27 rlineto
  6203 840 moveto
  0 1 rlineto
  6224 840 moveto
  0 11 rlineto
  6253 840 moveto
  0 1 rlineto
  6353 840 moveto
  0 12 rlineto
  6375 840 moveto
  0 12 rlineto
  7241 840 moveto
  0 5 rlineto
  7248 840 moveto
  0 15 rlineto
  7277 840 moveto
  0 11 rlineto
  7284 840 moveto
  0 17 rlineto
stroke

showpage

