%!PS-Adobe-2.0
0.100000 0.100000 scale
10 setlinewidth
840 6770 moveto
/Times-Roman findfont 120 scalefont setfont
(Ni2+) show
10 setlinewidth
newpath
  840 1770 moveto
  4760 0 rlineto
  0 4940 rlineto
  -4760 0 rlineto
  closepath
stroke

/Times-Roman findfont 120 scalefont setfont
2426 1410 moveto
(Energy \050eV\051) show
gsave
600 3356 moveto
/Times-Roman findfont 120 scalefont setfont
90 rotate
(Intensity \050x10) show
/Times-Roman findfont 90 scalefont setfont
0 60 rmoveto
(-1) show
0 -60 rmoveto
/Times-Roman findfont 120 scalefont setfont
(\051) show
stroke
grestore
/Times-Roman findfont 80 scalefont setfont
newpath
  1221 1770 moveto
  0 30 rlineto
  1221 6710 moveto
  0 -10 rlineto
stroke
  1161 1650 moveto
  (855) show
newpath
  1602 1770 moveto
  0 30 rlineto
  1602 6710 moveto
  0 -10 rlineto
stroke
  1542 1650 moveto
  (857) show
newpath
  1982 1770 moveto
  0 30 rlineto
  1982 6710 moveto
  0 -10 rlineto
stroke
  1922 1650 moveto
  (859) show
newpath
  2363 1770 moveto
  0 30 rlineto
  2363 6710 moveto
  0 -10 rlineto
stroke
  2303 1650 moveto
  (861) show
newpath
  2744 1770 moveto
  0 30 rlineto
  2744 6710 moveto
  0 -10 rlineto
stroke
  2684 1650 moveto
  (863) show
newpath
  3125 1770 moveto
  0 30 rlineto
  3125 6710 moveto
  0 -10 rlineto
stroke
  3065 1650 moveto
  (865) show
newpath
  3506 1770 moveto
  0 30 rlineto
  3506 6710 moveto
  0 -10 rlineto
stroke
  3446 1650 moveto
  (867) show
newpath
  3886 1770 moveto
  0 30 rlineto
  3886 6710 moveto
  0 -10 rlineto
stroke
  3826 1650 moveto
  (869) show
newpath
  4267 1770 moveto
  0 30 rlineto
  4267 6710 moveto
  0 -10 rlineto
stroke
  4207 1650 moveto
  (871) show
newpath
  4648 1770 moveto
  0 30 rlineto
  4648 6710 moveto
  0 -10 rlineto
stroke
  4588 1650 moveto
  (873) show
newpath
  5029 1770 moveto
  0 30 rlineto
  5029 6710 moveto
  0 -10 rlineto
stroke
  4969 1650 moveto
  (875) show
newpath
  5410 1770 moveto
  0 30 rlineto
  5410 6710 moveto
  0 -10 rlineto
stroke
  5350 1650 moveto
  (877) show
newpath
  840 1890 moveto
  20 0 rlineto
  5600 1890 moveto
  -20 0 rlineto
stroke
  720 1870 moveto
  (0.0) show
newpath
  840 3450 moveto
  20 0 rlineto
  5600 3450 moveto
  -20 0 rlineto
stroke
  720 3430 moveto
  (1.0) show
newpath
  840 5010 moveto
  20 0 rlineto
  5600 5010 moveto
  -20 0 rlineto
stroke
  720 4990 moveto
  (2.0) show
newpath
  840 6570 moveto
  20 0 rlineto
  5600 6570 moveto
  -20 0 rlineto
stroke
  720 6550 moveto
  (3.0) show

5 setlinewidth
newpath
  840 1948 moveto
  845 1954 lineto
  850 1960 lineto
  854 1965 lineto
  859 1971 lineto
  864 1977 lineto
  869 1982 lineto
  873 1988 lineto
  878 1993 lineto
  883 1998 lineto
  888 2002 lineto
  892 2007 lineto
  897 2011 lineto
  902 2015 lineto
  907 2019 lineto
  911 2023 lineto
  916 2026 lineto
  921 2030 lineto
  926 2034 lineto
  930 2038 lineto
  935 2042 lineto
  940 2046 lineto
  945 2050 lineto
  949 2054 lineto
  954 2058 lineto
  959 2063 lineto
  964 2068 lineto
  969 2073 lineto
  973 2078 lineto
  978 2083 lineto
  983 2089 lineto
  988 2095 lineto
  992 2101 lineto
  997 2107 lineto
  1002 2114 lineto
  1007 2121 lineto
  1011 2129 lineto
  1016 2137 lineto
  1021 2145 lineto
  1026 2154 lineto
  1030 2163 lineto
  1035 2173 lineto
  1040 2183 lineto
  1045 2194 lineto
  1049 2205 lineto
  1054 2218 lineto
  1059 2231 lineto
  1064 2245 lineto
  1068 2260 lineto
  1073 2276 lineto
  1078 2293 lineto
  1083 2311 lineto
  1088 2331 lineto
  1092 2352 lineto
  1097 2375 lineto
  1102 2399 lineto
  1107 2426 lineto
  1111 2455 lineto
  1116 2486 lineto
  1121 2520 lineto
  1126 2558 lineto
  1130 2598 lineto
  1135 2642 lineto
  1140 2691 lineto
  1145 2744 lineto
  1149 2801 lineto
  1154 2864 lineto
  1159 2933 lineto
  1164 3008 lineto
  1168 3089 lineto
  1173 3177 lineto
  1178 3273 lineto
  1183 3375 lineto
  1187 3486 lineto
  1192 3603 lineto
  1197 3728 lineto
  1202 3861 lineto
  1207 3999 lineto
  1211 4144 lineto
  1216 4294 lineto
  1221 4447 lineto
  1226 4604 lineto
  1230 4762 lineto
  1235 4921 lineto
  1240 5079 lineto
  1245 5233 lineto
  1249 5384 lineto
  1254 5529 lineto
  1259 5667 lineto
  1264 5798 lineto
  1268 5920 lineto
  1273 6032 lineto
  1278 6135 lineto
  1283 6227 lineto
  1287 6310 lineto
  1292 6382 lineto
  1297 6445 lineto
  1302 6499 lineto
  1306 6544 lineto
  1311 6581 lineto
  1316 6610 lineto
  1321 6631 lineto
  1326 6644 lineto
  1330 6650 lineto
  1335 6648 lineto
  1340 6637 lineto
  1345 6619 lineto
  1349 6591 lineto
  1354 6553 lineto
  1359 6506 lineto
  1364 6449 lineto
  1368 6381 lineto
  1373 6303 lineto
  1378 6214 lineto
  1383 6117 lineto
  1387 6010 lineto
  1392 5895 lineto
  1397 5773 lineto
  1402 5646 lineto
  1406 5515 lineto
  1411 5381 lineto
  1416 5246 lineto
  1421 5111 lineto
  1425 4977 lineto
  1430 4847 lineto
  1435 4720 lineto
  1440 4597 lineto
  1445 4480 lineto
  1449 4368 lineto
  1454 4261 lineto
  1459 4161 lineto
  1464 4066 lineto
  1468 3976 lineto
  1473 3892 lineto
  1478 3813 lineto
  1483 3738 lineto
  1487 3667 lineto
  1492 3600 lineto
  1497 3537 lineto
  1502 3477 lineto
  1506 3421 lineto
  1511 3368 lineto
  1516 3318 lineto
  1521 3271 lineto
  1525 3228 lineto
  1530 3188 lineto
  1535 3152 lineto
  1540 3119 lineto
  1544 3089 lineto
  1549 3062 lineto
  1554 3039 lineto
  1559 3019 lineto
  1564 3002 lineto
  1568 2987 lineto
  1573 2976 lineto
  1578 2967 lineto
  1583 2960 lineto
  1587 2956 lineto
  1592 2953 lineto
  1597 2952 lineto
  1602 2954 lineto
  1606 2956 lineto
  1611 2961 lineto
  1616 2967 lineto
  1621 2974 lineto
  1625 2982 lineto
  1630 2992 lineto
  1635 3003 lineto
  1640 3015 lineto
  1644 3028 lineto
  1649 3042 lineto
  1654 3056 lineto
  1659 3071 lineto
  1663 3086 lineto
  1668 3101 lineto
  1673 3116 lineto
  1678 3130 lineto
  1683 3144 lineto
  1687 3157 lineto
  1692 3168 lineto
  1697 3178 lineto
  1702 3186 lineto
  1706 3192 lineto
  1711 3197 lineto
  1716 3199 lineto
  1721 3200 lineto
  1725 3198 lineto
  1730 3194 lineto
  1735 3188 lineto
  1740 3179 lineto
  1744 3169 lineto
  1749 3157 lineto
  1754 3142 lineto
  1759 3126 lineto
  1763 3107 lineto
  1768 3087 lineto
  1773 3065 lineto
  1778 3042 lineto
  1782 3017 lineto
  1787 2990 lineto
  1792 2963 lineto
  1797 2934 lineto
  1802 2905 lineto
  1806 2875 lineto
  1811 2845 lineto
  1816 2814 lineto
  1821 2784 lineto
  1825 2753 lineto
  1830 2723 lineto
  1835 2694 lineto
  1840 2666 lineto
  1844 2638 lineto
  1849 2610 lineto
  1854 2584 lineto
  1859 2559 lineto
  1863 2534 lineto
  1868 2510 lineto
  1873 2486 lineto
  1878 2463 lineto
  1882 2441 lineto
  1887 2419 lineto
  1892 2398 lineto
  1897 2377 lineto
  1901 2357 lineto
  1906 2337 lineto
  1911 2317 lineto
  1916 2299 lineto
  1921 2280 lineto
  1925 2262 lineto
  1930 2245 lineto
  1935 2228 lineto
  1940 2212 lineto
  1944 2196 lineto
  1949 2182 lineto
  1954 2168 lineto
  1959 2154 lineto
  1963 2142 lineto
  1968 2130 lineto
  1973 2118 lineto
  1978 2108 lineto
  1982 2098 lineto
  1987 2089 lineto
  1992 2080 lineto
  1997 2072 lineto
  2001 2064 lineto
  2006 2057 lineto
  2011 2050 lineto
  2016 2044 lineto
  2020 2038 lineto
  2025 2033 lineto
  2030 2028 lineto
  2035 2023 lineto
  2040 2019 lineto
  2044 2015 lineto
  2049 2011 lineto
  2054 2007 lineto
  2059 2004 lineto
  2063 2000 lineto
  2068 1997 lineto
  2073 1994 lineto
  2078 1991 lineto
  2082 1989 lineto
  2087 1986 lineto
  2092 1984 lineto
  2097 1982 lineto
  2101 1980 lineto
  2106 1977 lineto
  2111 1975 lineto
  2116 1974 lineto
  2120 1972 lineto
  2125 1970 lineto
  2130 1968 lineto
  2135 1967 lineto
  2139 1965 lineto
  2144 1964 lineto
  2149 1962 lineto
  2154 1961 lineto
  2159 1960 lineto
  2163 1958 lineto
  2168 1957 lineto
  2173 1956 lineto
  2178 1955 lineto
  2182 1954 lineto
  2187 1952 lineto
  2192 1951 lineto
  2197 1950 lineto
  2201 1949 lineto
  2206 1948 lineto
  2211 1947 lineto
  2216 1947 lineto
  2220 1946 lineto
  2225 1945 lineto
  2230 1944 lineto
  2235 1943 lineto
  2239 1942 lineto
  2244 1942 lineto
  2249 1941 lineto
  2254 1940 lineto
  2258 1939 lineto
  2263 1939 lineto
  2268 1938 lineto
  2273 1937 lineto
  2278 1937 lineto
  2282 1936 lineto
  2287 1935 lineto
  2292 1935 lineto
  2297 1934 lineto
  2301 1934 lineto
  2306 1933 lineto
  2311 1933 lineto
  2316 1932 lineto
  2320 1932 lineto
  2325 1931 lineto
  2330 1931 lineto
  2335 1930 lineto
  2339 1930 lineto
  2344 1929 lineto
  2349 1929 lineto
  2354 1928 lineto
  2358 1928 lineto
  2363 1927 lineto
  2368 1927 lineto
  2373 1926 lineto
  2377 1926 lineto
  2382 1926 lineto
  2387 1925 lineto
  2392 1925 lineto
  2397 1924 lineto
  2401 1924 lineto
  2406 1924 lineto
  2411 1923 lineto
  2416 1923 lineto
  2420 1923 lineto
  2425 1922 lineto
  2430 1922 lineto
  2435 1922 lineto
  2439 1921 lineto
  2444 1921 lineto
  2449 1921 lineto
  2454 1920 lineto
  2458 1920 lineto
  2463 1920 lineto
  2468 1920 lineto
  2473 1919 lineto
  2477 1919 lineto
  2482 1919 lineto
  2487 1918 lineto
  2492 1918 lineto
  2496 1918 lineto
  2501 1918 lineto
  2506 1917 lineto
  2511 1917 lineto
  2516 1917 lineto
  2520 1917 lineto
  2525 1916 lineto
  2530 1916 lineto
  2535 1916 lineto
  2539 1916 lineto
  2544 1916 lineto
  2549 1915 lineto
  2554 1915 lineto
  2558 1915 lineto
  2563 1915 lineto
  2568 1915 lineto
  2573 1914 lineto
  2577 1914 lineto
  2582 1914 lineto
  2587 1914 lineto
  2592 1914 lineto
  2596 1913 lineto
  2601 1913 lineto
  2606 1913 lineto
  2611 1913 lineto
  2615 1913 lineto
  2620 1912 lineto
  2625 1912 lineto
  2630 1912 lineto
  2635 1912 lineto
  2639 1912 lineto
  2644 1912 lineto
  2649 1912 lineto
  2654 1911 lineto
  2658 1911 lineto
  2663 1911 lineto
  2668 1911 lineto
  2673 1911 lineto
  2677 1911 lineto
  2682 1910 lineto
  2687 1910 lineto
  2692 1910 lineto
  2696 1910 lineto
  2701 1910 lineto
  2706 1910 lineto
  2711 1910 lineto
  2715 1910 lineto
  2720 1909 lineto
  2725 1909 lineto
  2730 1909 lineto
  2734 1909 lineto
  2739 1909 lineto
  2744 1909 lineto
  2749 1909 lineto
  2754 1909 lineto
  2758 1908 lineto
  2763 1908 lineto
  2768 1908 lineto
  2773 1908 lineto
  2777 1908 lineto
  2782 1908 lineto
  2787 1908 lineto
  2792 1908 lineto
  2796 1908 lineto
  2801 1907 lineto
  2806 1907 lineto
  2811 1907 lineto
  2815 1907 lineto
  2820 1907 lineto
  2825 1907 lineto
  2830 1907 lineto
  2834 1907 lineto
  2839 1907 lineto
  2844 1907 lineto
  2849 1907 lineto
  2853 1906 lineto
  2858 1906 lineto
  2863 1906 lineto
  2868 1906 lineto
  2873 1906 lineto
  2877 1906 lineto
  2882 1906 lineto
  2887 1906 lineto
  2892 1906 lineto
  2896 1906 lineto
  2901 1906 lineto
  2906 1906 lineto
  2911 1905 lineto
  2915 1905 lineto
  2920 1905 lineto
  2925 1905 lineto
  2930 1905 lineto
  2934 1905 lineto
  2939 1905 lineto
  2944 1905 lineto
  2949 1905 lineto
  2953 1905 lineto
  2958 1905 lineto
  2963 1905 lineto
  2968 1905 lineto
  2972 1905 lineto
  2977 1905 lineto
  2982 1905 lineto
  2987 1904 lineto
  2992 1904 lineto
  2996 1904 lineto
  3001 1904 lineto
  3006 1904 lineto
  3011 1904 lineto
  3015 1904 lineto
  3020 1904 lineto
  3025 1904 lineto
  3030 1904 lineto
  3034 1904 lineto
  3039 1904 lineto
  3044 1904 lineto
  3049 1904 lineto
  3053 1904 lineto
  3058 1904 lineto
  3063 1904 lineto
  3068 1904 lineto
  3072 1904 lineto
  3077 1903 lineto
  3082 1903 lineto
  3087 1903 lineto
  3091 1903 lineto
  3096 1903 lineto
  3101 1903 lineto
  3106 1903 lineto
  3111 1903 lineto
  3115 1903 lineto
  3120 1903 lineto
  3125 1903 lineto
  3130 1903 lineto
  3134 1903 lineto
  3139 1903 lineto
  3144 1903 lineto
  3149 1903 lineto
  3153 1903 lineto
  3158 1903 lineto
  3163 1903 lineto
  3168 1903 lineto
  3172 1903 lineto
  3177 1903 lineto
  3182 1903 lineto
  3187 1903 lineto
  3191 1903 lineto
  3196 1903 lineto
  3201 1903 lineto
  3206 1903 lineto
  3210 1903 lineto
  3215 1902 lineto
  3220 1902 lineto
  3225 1902 lineto
  3230 1902 lineto
  3234 1902 lineto
  3239 1902 lineto
  3244 1902 lineto
  3249 1902 lineto
  3253 1902 lineto
  3258 1902 lineto
  3263 1902 lineto
  3268 1902 lineto
  3272 1902 lineto
  3277 1902 lineto
  3282 1902 lineto
  3287 1902 lineto
  3291 1902 lineto
  3296 1902 lineto
  3301 1902 lineto
  3306 1902 lineto
  3310 1902 lineto
  3315 1902 lineto
  3320 1902 lineto
  3325 1902 lineto
  3329 1902 lineto
  3334 1902 lineto
  3339 1902 lineto
  3344 1902 lineto
  3349 1902 lineto
  3353 1902 lineto
  3358 1902 lineto
  3363 1902 lineto
  3368 1902 lineto
  3372 1902 lineto
  3377 1902 lineto
  3382 1902 lineto
  3387 1902 lineto
  3391 1902 lineto
  3396 1902 lineto
  3401 1902 lineto
  3406 1902 lineto
  3410 1902 lineto
  3415 1902 lineto
  3420 1902 lineto
  3425 1902 lineto
  3429 1902 lineto
  3434 1902 lineto
  3439 1902 lineto
  3444 1902 lineto
  3448 1902 lineto
  3453 1902 lineto
  3458 1902 lineto
  3463 1902 lineto
  3468 1902 lineto
  3472 1902 lineto
  3477 1902 lineto
  3482 1902 lineto
  3487 1902 lineto
  3491 1902 lineto
  3496 1902 lineto
  3501 1902 lineto
  3506 1902 lineto
  3510 1902 lineto
  3515 1902 lineto
  3520 1902 lineto
  3525 1902 lineto
  3529 1902 lineto
  3534 1902 lineto
  3539 1902 lineto
  3544 1902 lineto
  3548 1902 lineto
  3553 1902 lineto
  3558 1902 lineto
  3563 1902 lineto
  3567 1902 lineto
  3572 1902 lineto
  3577 1902 lineto
  3582 1902 lineto
  3587 1903 lineto
  3591 1903 lineto
  3596 1903 lineto
  3601 1903 lineto
  3606 1903 lineto
  3610 1903 lineto
  3615 1903 lineto
  3620 1903 lineto
  3625 1903 lineto
  3629 1903 lineto
  3634 1903 lineto
  3639 1903 lineto
  3644 1903 lineto
  3648 1903 lineto
  3653 1903 lineto
  3658 1903 lineto
  3663 1903 lineto
  3667 1903 lineto
  3672 1903 lineto
  3677 1903 lineto
  3682 1903 lineto
  3686 1903 lineto
  3691 1903 lineto
  3696 1903 lineto
  3701 1903 lineto
  3706 1904 lineto
  3710 1904 lineto
  3715 1904 lineto
  3720 1904 lineto
  3725 1904 lineto
  3729 1904 lineto
  3734 1904 lineto
  3739 1904 lineto
  3744 1904 lineto
  3748 1904 lineto
  3753 1904 lineto
  3758 1904 lineto
  3763 1904 lineto
  3767 1904 lineto
  3772 1904 lineto
  3777 1904 lineto
  3782 1905 lineto
  3786 1905 lineto
  3791 1905 lineto
  3796 1905 lineto
  3801 1905 lineto
  3805 1905 lineto
  3810 1905 lineto
  3815 1905 lineto
  3820 1905 lineto
  3825 1905 lineto
  3829 1905 lineto
  3834 1906 lineto
  3839 1906 lineto
  3844 1906 lineto
  3848 1906 lineto
  3853 1906 lineto
  3858 1906 lineto
  3863 1906 lineto
  3867 1906 lineto
  3872 1906 lineto
  3877 1906 lineto
  3882 1907 lineto
  3886 1907 lineto
  3891 1907 lineto
  3896 1907 lineto
  3901 1907 lineto
  3905 1907 lineto
  3910 1907 lineto
  3915 1907 lineto
  3920 1908 lineto
  3924 1908 lineto
  3929 1908 lineto
  3934 1908 lineto
  3939 1908 lineto
  3944 1908 lineto
  3948 1909 lineto
  3953 1909 lineto
  3958 1909 lineto
  3963 1909 lineto
  3967 1909 lineto
  3972 1909 lineto
  3977 1910 lineto
  3982 1910 lineto
  3986 1910 lineto
  3991 1910 lineto
  3996 1910 lineto
  4001 1910 lineto
  4005 1911 lineto
  4010 1911 lineto
  4015 1911 lineto
  4020 1911 lineto
  4024 1912 lineto
  4029 1912 lineto
  4034 1912 lineto
  4039 1912 lineto
  4043 1913 lineto
  4048 1913 lineto
  4053 1913 lineto
  4058 1913 lineto
  4063 1914 lineto
  4067 1914 lineto
  4072 1914 lineto
  4077 1914 lineto
  4082 1915 lineto
  4086 1915 lineto
  4091 1915 lineto
  4096 1916 lineto
  4101 1916 lineto
  4105 1916 lineto
  4110 1917 lineto
  4115 1917 lineto
  4120 1917 lineto
  4124 1918 lineto
  4129 1918 lineto
  4134 1919 lineto
  4139 1919 lineto
  4143 1919 lineto
  4148 1920 lineto
  4153 1920 lineto
  4158 1921 lineto
  4162 1921 lineto
  4167 1922 lineto
  4172 1922 lineto
  4177 1923 lineto
  4182 1923 lineto
  4186 1924 lineto
  4191 1924 lineto
  4196 1925 lineto
  4201 1926 lineto
  4205 1926 lineto
  4210 1927 lineto
  4215 1927 lineto
  4220 1928 lineto
  4224 1929 lineto
  4229 1930 lineto
  4234 1930 lineto
  4239 1931 lineto
  4243 1932 lineto
  4248 1933 lineto
  4253 1934 lineto
  4258 1935 lineto
  4262 1935 lineto
  4267 1936 lineto
  4272 1937 lineto
  4277 1938 lineto
  4281 1940 lineto
  4286 1941 lineto
  4291 1942 lineto
  4296 1943 lineto
  4301 1944 lineto
  4305 1946 lineto
  4310 1947 lineto
  4315 1948 lineto
  4320 1950 lineto
  4324 1951 lineto
  4329 1953 lineto
  4334 1955 lineto
  4339 1957 lineto
  4343 1959 lineto
  4348 1960 lineto
  4353 1963 lineto
  4358 1965 lineto
  4362 1967 lineto
  4367 1969 lineto
  4372 1972 lineto
  4377 1975 lineto
  4381 1978 lineto
  4386 1981 lineto
  4391 1984 lineto
  4396 1987 lineto
  4400 1991 lineto
  4405 1995 lineto
  4410 1999 lineto
  4415 2003 lineto
  4420 2008 lineto
  4424 2013 lineto
  4429 2018 lineto
  4434 2024 lineto
  4439 2030 lineto
  4443 2037 lineto
  4448 2044 lineto
  4453 2052 lineto
  4458 2061 lineto
  4462 2070 lineto
  4467 2080 lineto
  4472 2092 lineto
  4477 2104 lineto
  4481 2117 lineto
  4486 2131 lineto
  4491 2147 lineto
  4496 2164 lineto
  4500 2182 lineto
  4505 2202 lineto
  4510 2224 lineto
  4515 2248 lineto
  4519 2273 lineto
  4524 2300 lineto
  4529 2329 lineto
  4534 2360 lineto
  4539 2393 lineto
  4543 2427 lineto
  4548 2463 lineto
  4553 2501 lineto
  4558 2540 lineto
  4562 2580 lineto
  4567 2622 lineto
  4572 2663 lineto
  4577 2706 lineto
  4581 2748 lineto
  4586 2790 lineto
  4591 2831 lineto
  4596 2872 lineto
  4600 2910 lineto
  4605 2947 lineto
  4610 2981 lineto
  4615 3013 lineto
  4619 3041 lineto
  4624 3066 lineto
  4629 3087 lineto
  4634 3104 lineto
  4638 3116 lineto
  4643 3123 lineto
  4648 3125 lineto
  4653 3122 lineto
  4658 3115 lineto
  4662 3103 lineto
  4667 3086 lineto
  4672 3066 lineto
  4677 3042 lineto
  4681 3014 lineto
  4686 2985 lineto
  4691 2954 lineto
  4696 2922 lineto
  4700 2889 lineto
  4705 2857 lineto
  4710 2826 lineto
  4715 2797 lineto
  4719 2770 lineto
  4724 2746 lineto
  4729 2725 lineto
  4734 2708 lineto
  4738 2696 lineto
  4743 2687 lineto
  4748 2684 lineto
  4753 2685 lineto
  4757 2690 lineto
  4762 2701 lineto
  4767 2716 lineto
  4772 2736 lineto
  4777 2760 lineto
  4781 2788 lineto
  4786 2820 lineto
  4791 2855 lineto
  4796 2893 lineto
  4800 2934 lineto
  4805 2976 lineto
  4810 3019 lineto
  4815 3063 lineto
  4819 3106 lineto
  4824 3148 lineto
  4829 3189 lineto
  4834 3227 lineto
  4838 3263 lineto
  4843 3294 lineto
  4848 3322 lineto
  4853 3345 lineto
  4857 3362 lineto
  4862 3375 lineto
  4867 3381 lineto
  4872 3382 lineto
  4876 3377 lineto
  4881 3365 lineto
  4886 3348 lineto
  4891 3326 lineto
  4896 3298 lineto
  4900 3264 lineto
  4905 3227 lineto
  4910 3185 lineto
  4915 3140 lineto
  4919 3092 lineto
  4924 3041 lineto
  4929 2989 lineto
  4934 2936 lineto
  4938 2882 lineto
  4943 2828 lineto
  4948 2776 lineto
  4953 2724 lineto
  4957 2674 lineto
  4962 2625 lineto
  4967 2579 lineto
  4972 2536 lineto
  4976 2494 lineto
  4981 2456 lineto
  4986 2420 lineto
  4991 2386 lineto
  4995 2355 lineto
  5000 2327 lineto
  5005 2300 lineto
  5010 2276 lineto
  5015 2254 lineto
  5019 2234 lineto
  5024 2216 lineto
  5029 2199 lineto
  5034 2184 lineto
  5038 2170 lineto
  5043 2158 lineto
  5048 2146 lineto
  5053 2136 lineto
  5057 2127 lineto
  5062 2119 lineto
  5067 2111 lineto
  5072 2104 lineto
  5076 2098 lineto
  5081 2093 lineto
  5086 2088 lineto
  5091 2083 lineto
  5095 2079 lineto
  5100 2075 lineto
  5105 2071 lineto
  5110 2068 lineto
  5114 2064 lineto
  5119 2061 lineto
  5124 2057 lineto
  5129 2054 lineto
  5134 2050 lineto
  5138 2046 lineto
  5143 2042 lineto
  5148 2038 lineto
  5153 2034 lineto
  5157 2029 lineto
  5162 2025 lineto
  5167 2020 lineto
  5172 2015 lineto
  5176 2011 lineto
  5181 2006 lineto
  5186 2002 lineto
  5191 1997 lineto
  5195 1993 lineto
  5200 1989 lineto
  5205 1985 lineto
  5210 1981 lineto
  5214 1977 lineto
  5219 1973 lineto
  5224 1970 lineto
  5229 1967 lineto
  5233 1964 lineto
  5238 1961 lineto
  5243 1958 lineto
  5248 1956 lineto
  5253 1953 lineto
  5257 1951 lineto
  5262 1949 lineto
  5267 1947 lineto
  5272 1945 lineto
  5276 1944 lineto
  5281 1942 lineto
  5286 1941 lineto
  5291 1939 lineto
  5295 1938 lineto
  5300 1937 lineto
  5305 1935 lineto
  5310 1934 lineto
  5314 1933 lineto
  5319 1932 lineto
  5324 1931 lineto
  5329 1930 lineto
  5333 1929 lineto
  5338 1928 lineto
  5343 1928 lineto
  5348 1927 lineto
  5352 1926 lineto
  5357 1925 lineto
  5362 1925 lineto
  5367 1924 lineto
  5372 1923 lineto
  5376 1923 lineto
  5381 1922 lineto
  5386 1921 lineto
  5391 1921 lineto
  5395 1920 lineto
  5400 1920 lineto
  5405 1919 lineto
  5410 1919 lineto
  5414 1918 lineto
  5419 1918 lineto
  5424 1917 lineto
  5429 1917 lineto
  5433 1916 lineto
  5438 1916 lineto
  5443 1915 lineto
  5448 1915 lineto
  5452 1915 lineto
  5457 1914 lineto
  5462 1914 lineto
  5467 1914 lineto
  5471 1913 lineto
  5476 1913 lineto
  5481 1913 lineto
  5486 1912 lineto
  5491 1912 lineto
  5495 1912 lineto
  5500 1911 lineto
  5505 1911 lineto
  5510 1911 lineto
  5514 1910 lineto
  5519 1910 lineto
  5524 1909 lineto
  5529 1909 lineto
  5533 1909 lineto
  5538 1908 lineto
  5543 1908 lineto
  5548 1907 lineto
  5552 1907 lineto
  5557 1906 lineto
  5562 1905 lineto
  5567 1904 lineto
  5571 1904 lineto
  5576 1903 lineto
  5581 1902 lineto
  5586 1901 lineto
  5590 1900 lineto
  5595 1899 lineto
stroke

newpath
  1254 1890 moveto
  0 904 rlineto
  1259 1890 moveto
  0 220 rlineto
  1283 1890 moveto
  0 2380 rlineto
  1292 1890 moveto
  0 1 rlineto
  1302 1890 moveto
  0 23 rlineto
  1326 1890 moveto
  0 547 rlineto
  1335 1890 moveto
  0 100 rlineto
  1354 1890 moveto
  0 1439 rlineto
  1383 1890 moveto
  0 2268 rlineto
  1478 1890 moveto
  0 450 rlineto
  1487 1890 moveto
  0 253 rlineto
  1540 1890 moveto
  0 27 rlineto
  1544 1890 moveto
  0 3 rlineto
  1587 1890 moveto
  0 244 rlineto
  1621 1890 moveto
  0 126 rlineto
  1654 1890 moveto
  0 103 rlineto
  1659 1890 moveto
  0 55 rlineto
  1692 1890 moveto
  0 167 rlineto
  1706 1890 moveto
  0 491 rlineto
  1740 1890 moveto
  0 273 rlineto
  1754 1890 moveto
  0 8 rlineto
  1787 1890 moveto
  0 581 rlineto
  1859 1890 moveto
  0 77 rlineto
  1878 1890 moveto
  0 154 rlineto
  1921 1890 moveto
  0 32 rlineto
  1944 1890 moveto
  0 7 rlineto
  4591 1890 moveto
  0 253 rlineto
  4605 1890 moveto
  0 244 rlineto
  4653 1890 moveto
  0 357 rlineto
  4662 1890 moveto
  0 732 rlineto
  4838 1890 moveto
  0 56 rlineto
  4843 1890 moveto
  0 885 rlineto
  4886 1890 moveto
  0 208 rlineto
  4900 1890 moveto
  0 820 rlineto
  4905 1890 moveto
  0 6 rlineto
  4981 1890 moveto
  0 3 rlineto
  5000 1890 moveto
  0 30 rlineto
  5019 1890 moveto
  0 3 rlineto
  5119 1890 moveto
  0 35 rlineto
  5143 1890 moveto
  0 43 rlineto
stroke

showpage

